Unit - I : Data Visualization with ggplot2
…
4.How to Install a package ?

5.How to Attach a package to the current R session?

6.How to Add dataset into R(mpg dataset)?

library(tidyverse)

data(mpg)

Data exploration of mpg dataset ?

mpg

## # A tibble: 234 x 11
##    manufacturer model      displ  year   cyl trans drv     cty   hwy fl    class
##    <chr>        <chr>      <dbl> <int> <int> <chr> <chr> <int> <int> <chr> <chr>
##  1 audi         a4           1.8  1999     4 auto~ f        18    29 p     comp~
##  2 audi         a4           1.8  1999     4 manu~ f        21    29 p     comp~
##  3 audi         a4           2    2008     4 manu~ f        20    31 p     comp~
##  4 audi         a4           2    2008     4 auto~ f        21    30 p     comp~
##  5 audi         a4           2.8  1999     6 auto~ f        16    26 p     comp~
##  6 audi         a4           2.8  1999     6 manu~ f        18    26 p     comp~
##  7 audi         a4           3.1  2008     6 auto~ f        18    27 p     comp~
##  8 audi         a4 quattro   1.8  1999     4 manu~ 4        18    26 p     comp~
##  9 audi         a4 quattro   1.8  1999     4 auto~ 4        16    25 p     comp~
## 10 audi         a4 quattro   2    2008     4 manu~ 4        20    28 p     comp~
## # ... with 224 more rows
…
to understand how filter works

filter() function from dplyr package

filter(mpg, class == "suv")

## # A tibble: 62 x 11
##    manufacturer model      displ  year   cyl trans drv     cty   hwy fl    class
##    <chr>        <chr>      <dbl> <int> <int> <chr> <chr> <int> <int> <chr> <chr>
##  1 chevrolet    c1500 sub~   5.3  2008     8 auto~ r        14    20 r     suv  
##  2 chevrolet    c1500 sub~   5.3  2008     8 auto~ r        11    15 e     suv  
##  3 chevrolet    c1500 sub~   5.3  2008     8 auto~ r        14    20 r     suv  
##  4 chevrolet    c1500 sub~   5.7  1999     8 auto~ r        13    17 r     suv  
##  5 chevrolet    c1500 sub~   6    2008     8 auto~ r        12    17 r     suv  
##  6 chevrolet    k1500 tah~   5.3  2008     8 auto~ 4        14    19 r     suv  
##  7 chevrolet    k1500 tah~   5.3  2008     8 auto~ 4        11    14 e     suv  
##  8 chevrolet    k1500 tah~   5.7  1999     8 auto~ 4        11    15 r     suv  
##  9 chevrolet    k1500 tah~   6.5  1999     8 auto~ 4        14    17 d     suv  
## 10 dodge        durango 4~   3.9  1999     6 auto~ 4        13    17 r     suv  
## # ... with 52 more rows

STATISTICAL TRANSFORMATIONS

diamonds dataset

data(diamonds)

dataframe - diamonds dataset

diamonds

## # A tibble: 53,940 x 10
##    carat cut       color clarity depth table price     x     y     z
##    <dbl> <ord>     <ord> <ord>   <dbl> <dbl> <int> <dbl> <dbl> <dbl>
##  1  0.23 Ideal     E     SI2      61.5    55   326  3.95  3.98  2.43
##  2  0.21 Premium   E     SI1      59.8    61   326  3.89  3.84  2.31
##  3  0.23 Good      E     VS1      56.9    65   327  4.05  4.07  2.31
##  4  0.29 Premium   I     VS2      62.4    58   334  4.2   4.23  2.63
##  5  0.31 Good      J     SI2      63.3    58   335  4.34  4.35  2.75
##  6  0.24 Very Good J     VVS2     62.8    57   336  3.94  3.96  2.48
##  7  0.24 Very Good I     VVS1     62.3    57   336  3.95  3.98  2.47
##  8  0.26 Very Good H     SI1      61.9    55   337  4.07  4.11  2.53
##  9  0.22 Fair      E     VS2      65.1    61   337  3.87  3.78  2.49
## 10  0.23 Very Good H     VS1      59.4    61   338  4     4.05  2.39
## # ... with 53,930 more rows
…
diamonds %>% filter(cut == "Ideal" & clarity == "IF")

## # A tibble: 1,212 x 10
##    carat cut   color clarity depth table price     x     y     z
##    <dbl> <ord> <ord> <ord>   <dbl> <dbl> <int> <dbl> <dbl> <dbl>
##  1  0.52 Ideal F     IF       62.2  55    2783  5.14  5.18  3.21
##  2  0.55 Ideal G     IF       60.9  57    2789  5.28  5.3   3.22
##  3  0.64 Ideal G     IF       61.3  56    2790  5.54  5.58  3.41
##  4  0.61 Ideal G     IF       62.3  56    2800  5.43  5.45  3.39
##  5  0.53 Ideal F     IF       61.9  54    2802  5.22  5.25  3.24
##  6  0.62 Ideal G     IF       60.5  57    2868  5.52  5.56  3.35
##  7  0.62 Ideal G     IF       61.8  56    2869  5.43  5.47  3.37
##  8  0.71 Ideal I     IF       61.5  56    2925  5.74  5.77  3.54
##  9  0.74 Ideal I     IF       62.1  53.9  2952  5.79  5.81  3.6 
## 10  0.64 Ideal G     IF       61.7  58    2960  5.52  5.56  3.42
## # ... with 1,202 more rows
…
